ISO,NOC,Country,CountryID,Continent,Adolescent fertility rate (%),Adult literacy rate (%),Gross national income per capita (PPP international $1000),Net primary school enrolment ratio female (%),Net primary school enrolment ratio male (%),Log of Population (in thousands) total ,Population annual growth rate (%),Population in urban areas (%),Population living below the poverty line (% living on &lt; US$1 per day),Population median age (years),Population proportion over 60 (%),Population proportion under 15 (%),Total fertility rate (per woman),Births attended by skilled health personnel (%),Contraceptive prevalence (%),General government expenditure on health as percentage of total government expenditure,Physicians density (per 10 000 population),Adult mortality rate (probability of dying between 15 to 60 years per 1000 population) both sexes,Healthy life expectancy (HALE) at birth (years) both sexes,Incidence of tuberculosis (per 100 000 population per year),Infant mortality rate (per 1 000 live births) both sexes,Life expectancy at birth (years) both sexes,Maternal mortality ratio (per 100 000 live births),Children under five years of age overweight for age (%),Children under five years of age stunted for age (%),Children under five years of age underweight for age (%),Per capita recorded alcohol consumption (litres of pure alcohol) among adults (&gt;=15 years),Prevalence of current tobacco use among adolescents (13-15 years) (%) both sexes,Prevalence of current tobacco use among adults (&gt;=15 years) (%) both sexes,Adolescent_fertility_rate,Births_attended_by_skilled_health_staff,Broadband_subscribers_per_100_people,Cell_phones_per_100_people,Children_per_woman,Contraceptive_use,Democracy_score,HIV_infected,Income_per_person,Income_share_held_by_lowest_20pct,Inequality_index,Literacy_rate_adult_total,Literacy_rate_youth_total,Market_value_of_listed_companies,Maternal_mortality,Personal_computers_per_100_people,Population_total,Primary_completion_rate_total,Ratio_of_girls_to_boys_in_primary_and_secondary_education,Ratio_of_young_literate_females_to_males,Tax_revenue,GDP2011,pop2010,F2012,M2012,TeamSize,Gold,Silver,Bronze
STRING,STRING,STRING,REAL,REAL,REAL,REAL,REAL,REAL,REAL,REAL,REAL,REAL,REAL,REAL,REAL,REAL,REAL,REAL,REAL,REAL,REAL,REAL,REAL,REAL,REAL,REAL,REAL,REAL,REAL,REAL,REAL,REAL,REAL,REAL,REAL,REAL,REAL,REAL,REAL,REAL,REAL,REAL,REAL,REAL,REAL,REAL,REAL,REAL,REAL,REAL,REAL,REAL,REAL,REAL,REAL,REAL,REAL,REAL,REAL,REAL,REAL,REAL
AFG,AFG,Afghanistan,1,1,75,28,0,0,0,4.416440786,4,23,0,16,4,47,7.2,14,10.3,4.4,2,473,36,161,165,42,1800,4.6,59.3,32.9,0.01,9.8,0,0,14.3,8.78E-04,4,7.07,10.3,-7,0,874,0,0,28,34.26,0,1900,0,29900000,37.73,55.57,36.2,0,20343461030,34385000,1,5,6,0,0,1
ALB,ALB,Albania,2,2,13,98.7,6,93,94,3.501333179,0.6,46,2,29,13,26,2.1,100,75.1,11.3,12,137,61,19,15,71,92,30,39.2,17,2.01,13,22.4,15.59,99.8,0.01,48.9,2.06,60,9,0,5369,8.23,31.1,98.71,99.44,0,55,1.2,3563112,96.34,97.02,100.13,17.29,12959563902,3205000,4,7,11,0,0,0
DZA,ALG,Algeria,3,3,3,69.9,5.94,94,96,4.52310886,1.5,64,0,24,7,29,2.4,95,61.4,9.5,11,135,61,56,33,71,180,15.4,21.6,10.2,0.15,13.8,15.2,7.82,95.2,0.59,41.5,2.38,61.4,2,0.1,6011,7,35.3,69.87,90.14,0,140,0.9,32500000,95.83,99.31,91.58,31.19,1.89E+11,35468000,18,21,39,1,0,0
AND,AND,Andorra,4,2,0,0,0,83,83,1.86923172,1,93,0,0,22,14,1.3,0,0,22.7,36,74,72,19,3,82,0,0,0,0,0,0,32.9,0,0,0,0,0,0,0,0,0,0,0,0,0,0,0,0,0,0,0,0,0,3491000000,84864,2,4,6,0,0,0
AGO,ANG,Angola,5,3,73,67.4,3.89,49,51,4.218981649,2.8,54,0,17,4,46,6.5,45,6.2,5,0,493,33,285,154,41,1400,5.3,50.8,27.5,3.86,0,0,139.64,44.7,0,10.3,6.43,6.2,-2,2.02,3533,0,0,67.41,72.18,0,1700,0.2,11800000,34.75,85.18,75.44,0,1.01E+11,19082000,30,5,35,0,0,0
ATG,ANT,Antigua and Barbuda,6,4,0,0,15.13,0,0,1.924279286,1.3,37,0,0,11,28,2.2,100,0,11.3,2,151,62,6,10,73,0,0,0,0,5.73,14.1,0,0,99.9,6.89,105.5,0,53,0,0,14579,0,0,0,0,0,0,0,68722,0,0,0,0,1128708617,88000,2,3,5,0,0,0
ARG,ARG,Argentina,7,5,31,97.2,11.67,98,99,4.592554241,1,90,6.6,29,14,26,2.3,99,65.3,14.2,30,124,65,39,14,75,77,9.9,8.2,2.3,8.4,24.9,30,58.42,99.1,2.39,57.4,2.25,0,8,0.53,11063,3.12,51.32,97.19,98.92,33.56,82,8,39500000,99.35,103.58,100.43,14.2,4.46E+11,40412000,43,99,142,1,1,2
ARM,ARM,Armenia,8,2,15,99.4,4.95,84,80,3.478566496,-0.3,64,2,32,14,20,1.3,98,53.1,9.7,37,184,61,72,21,69,76,11.7,18.2,4.2,1.48,7.3,29.6,30.07,97.8,0.07,10.5,1.39,53.1,5,0.13,3903,8.55,33.77,99.4,99.81,0.87,55,5.3,2982904,88,103.24,100.11,14.34,10247788877,3092000,4,21,25,0,1,2
AUS,AUS,Australia,9,6,8,0,33.94,97,96,4.312388949,1.1,88,0,37,18,19,1.8,100,0,17.2,25,65,73,6,5,82,4,0,0,0,9.02,0,24.8,15.38,100,8.76,91.4,1.79,0,10,0.13,32798,5.9,35.19,0,0,108.96,8,68.9,20100000,0,97.35,0,23.72,1.37E+12,22299000,188,225,413,7,16,12
AUT,AUT,Austria,10,2,7,0,36.04,98,97,3.920488565,0.4,66,0,40,22,16,1.4,0,0,15.5,37,79,71,13,4,80,4,0,0,0,11.08,0,43.3,12.36,100,14.26,105.8,1.42,50.8,0,0.12,34108,8.56,29.15,0,0,40.81,4,57.6,8184691,102.57,96.78,0,20.05,4.18E+11,8390000,31,39,70,0,0,0
AZE,AZE,Azerbaijan,11,2,15,98.8,5.43,83,86,3.924589386,0.6,52,3.7,28,9,24,1.7,97,55.4,3.6,36,188,57,77,73,64,82,6.2,24.1,14,4.54,0,0,28.94,99.7,0.03,26.7,1.82,55.4,-7,0.11,4648,7.43,36.5,98.79,99.89,0.09,94,1.8,7911974,93.18,96.93,100.03,12.73,63403650746,9054000,14,39,53,2,2,6
BHS,BAH,Bahamas,12,4,23,0,0,89,87,2.514547753,1.2,91,0,28,10,27,2,99,0,13.9,11,195,64,38,13,74,16,0,0,0,0,11.9,0,54.08,99,4.14,70.5,0,0,0,2.98,23021,0,0,0,0,0,60,0,0,100.68,99.96,0,16.33,7787514000,343000,11,15,26,1,0,0
BHR,BRN,Bahrain,13,1,7,86.5,34.31,98,98,2.868644438,1.9,97,0,29,5,26,2.4,99,0,9.5,27,104,64,41,9,75,32,0,0,0,6.98,19.9,14.6,17.52,99,2.96,103,2.29,61.8,-7,0,27236,0,0,86.55,97.02,108.25,28,16.9,688345,105.48,102.09,100.44,4.42,22945000000,1262000,8,4,12,0,0,1
BGD,BAN,Bangladesh,14,7,67,47.5,1.23,90,87,5.193099542,1.8,25,41.3,22,6,35,2.9,20,58.1,7.4,3,254,54,225,52,63,570,0.9,47.8,39.2,0,5.8,25.6,134.37,20.1,0,6.3,2.83,58.1,6,0.01,1268,8.76,33.2,47.49,63.62,5.06,380,1.2,144000000,71.92,103.45,89.72,8.11,1.11E+11,148692000,1,4,5,0,0,0
BRB,BAR,Barbados,15,4,25,0,15.15,96,97,2.46686762,0.3,53,0,36,13,18,1.5,100,0,11.9,12,118,66,11,11,75,16,0,0,0,0,14.8,10.8,42.24,100,10.94,76.7,1.5,0,0,1.17,15837,0,0,0,0,181.11,95,12.5,278870,92.84,99.93,0,31.57,3685000000,274000,0,6,6,0,0,0
BLR,BLR,Belarus,16,2,11,99.6,9.7,88,90,3.988648125,-0.5,73,2,38,18,15,1.2,100,0,10.2,48,251,61,61,6,69,18,9.7,4.5,1.3,5.53,26.9,42.6,22.62,100,0.02,42,1.2,72.6,-7,0.22,8541,8.77,27.95,99.59,99.79,0,35,0,10300000,94.93,100.25,100.07,20.15,55136144037,9490000,77,95,172,2,5,5
BEL,BEL,Belgium,17,2,2,0,33.86,97,97,4.018284308,0.3,97,0,41,22,17,1.6,99,0,13.9,42,86,71,13,4,79,8,0,0,0,10.63,0,27.1,7.67,99.3,19.19,90,1.65,78.4,10,0.22,32077,8.5,32.97,0,0,77.71,10,34.7,10400000,78.85,98.03,0,26.39,5.12E+11,10896000,44,74,118,0,1,2
BLZ,BIZ,Belize,18,5,45,70.3,7.08,97,97,2.450249108,2.2,48,0,21,6,37,3,91,0,10.9,11,255,60,49,14,69,52,0,0,0,6.25,18.1,0,83.7,89.3,1.72,44.3,2.93,56.1,0,2.05,7290,0,0,70.3,76.42,0,140,13.5,281084,103.43,98.24,100.74,19.14,1474000000,345000,1,2,3,0,0,0
BEN,BEN,Benin,19,3,54,34.7,1.25,73,87,3.942504106,3.1,40,30.9,18,4,44,5.6,74,18.6,13.1,0,327,44,90,88,55,840,9,43.1,18.4,1.29,11,0,126.52,75,0,10,5.42,17.2,6,1.27,1390,7.37,36.48,34.66,45.31,0,850,0.4,7649360,64.66,73.45,56.14,15.47,7294865847,8850000,1,4,5,0,0,0
BMU,BER,Bermuda,20,4,0,0,0,0,0,0,0,0,0,0,0,0,0,0,0,0,0,0,0,0,0,0,0,0,0,0,0,0,0,0,0,29.08,82.2,0,0,0,0,69916.79,0,0,0,0,62.64,0,26.15,65365,96.94,106.08,0,0,6015000000,64600,3,5,8,0,0,0
BTN,BHU,Bhutan,21,7,31,0,4,79,79,2.812244697,1.8,11,0,23,7,32,2.3,51,30.7,7.3,0,218,53,96,63,64,440,3.9,47.7,14.1,0.23,20.2,0,42.42,50.9,0,4.7,2.19,30.7,-6,0,3694,0,0,59.5,0,8.92,420,1.4,2232291,65.23,93.88,0,7.57,1688939892,726000,2,0,2,0,0,0
BOL,BOL,Bolivia,22,5,48,86.7,3.81,95,94,3.970997366,1.9,65,23.2,21,7,38,3.6,61,58.4,11.6,12,208,54,198,50,66,290,9.2,32.5,5.9,3.23,20.8,31.7,80.68,66.8,0.12,26.4,3.5,58.4,8,0.15,3618,1.49,60.05,86.72,97.32,23.3,420,2.3,8857870,100.95,98.29,97.53,16.4,24426829466,9929000,2,3,5,0,0,0
BIH,BIH,Bosnia and Herzegovina,23,2,12,96.7,6.78,0,0,3.593950295,0.3,46,0,38,19,17,1.2,100,47.5,14,14,111,64,51,13,75,3,25.6,11.8,1.6,9.05,13,42.3,21.48,99.6,0.35,40.8,1.23,35.7,0,0.01,6506,6.96,35.79,96.66,99.79,0,31,0,4430494,0,0,100.1,20.13,18088238053,3760000,2,4,6,0,0,0
BWA,BOT,Botswana,24,3,25,81.2,11.73,85,83,3.26904571,1.2,58,0,21,5,35,3,99,44.4,17.8,4,468,36,551,90,52,380,10.4,29.1,10.7,4.29,11.3,0,55.78,94.2,0.09,46.6,2.9,44.4,9,24.85,12057,3.19,60.51,81.19,93.96,23.33,100,4.7,1640115,95.16,100.33,103.81,15.09,17627441191,2007000,1,3,4,0,1,0
BRA,BRA,Brazil,25,5,35,88.6,8.7,95,93,5.277203378,1.3,85,7.5,27,9,28,2.3,97,0,7.2,12,176,60,50,19,72,110,6.6,13.5,3.7,5.76,17.2,0,89.42,96.6,2.35,46.3,2.25,76.7,8,0.62,8596,2.88,56.6,88.62,96.84,53.79,260,10.7,186000000,105.05,101.97,102.21,11.34,2.48E+12,194946000,128,138,266,3,5,9
BRN,BRU,Brunei,26,6,15,92.7,49.9,94,94,2.582063363,2.1,74,0,26,5,29,2.4,100,0,5.1,11,88,65,83,8,77,13,0,0,0,0.12,0,0,28.65,99.7,2.17,62.3,2.29,0,0,0,47465,0,0,92.67,98.89,0,37,8.5,372361,106.88,101.85,100.04,0,13024000000,399000,1,2,3,0,0,0
BGR,BUL,Bulgaria,27,2,20,98.2,10.27,92,93,3.886095732,-0.7,70,2,41,23,14,1.3,99,0,11.9,36.6,157,65,40,10,73,11,13.6,8.8,1.6,5.86,34.3,37.7,41.63,99.4,2.14,80.8,1.31,41.5,9,0.05,9353,8.66,29.21,98.2,98.21,18.71,32,5.9,7450349,98.58,96.57,99.8,22.97,53514098360,7534000,26,37,63,0,1,1
BFA,BUR,Burkina Faso,28,3,65,23.6,1.13,42,52,4.157124196,3,19,27.2,17,4,46,6.1,54,13.8,15.8,0,427,36,248,122,47,700,5.4,43.1,35.2,5.01,13.6,16.6,132.91,53.5,0,4.8,6,17.4,0,1.74,1140,6.89,39.51,23.55,32.97,0,1000,0.2,13500000,30.28,78.26,65.58,11.18,10187211704,16468000,3,2,5,0,0,0
BDI,BDI,Burundi,29,3,15,59.3,0.32,73,76,3.912381499,3.9,10,0,17,4,45,6.8,34,19.7,2.3,0,434,35,367,109,49,1100,1.4,63.1,38.9,9.1,0,0,54.94,33.6,0,2,6.8,9.1,6,2.37,420.08,5.08,42.39,59.3,73.33,0,1000,0.5,7795426,34.62,83.96,91.65,13.6,2325972144,8382000,4,2,6,0,0,0
KHM,CAM,Cambodia,30,7,26,73.6,1.55,89,91,4.152196582,1.7,20,66,20,5,37,3.3,44,40,10.7,2,257,48,500,65,62,540,1.7,43.7,28.4,1.48,5.1,23.6,44.95,43.8,0.01,7.5,3.18,40,2,1.06,1453,6.82,41.71,73.61,83.38,0,450,0.3,13600000,85.11,89.24,89.74,7.91,12875310959,14139000,3,3,6,0,0,0
CMR,CMR,Cameroon,31,3,70,67.9,2.06,65,74,4.25947442,2.1,56,17.1,19,5,41,4.5,63,26,8.6,2,436,41,192,87,51,1000,8.7,35.4,15.1,3.77,0,7.4,125.31,63,0,13.8,4.31,29.2,-4,5.38,1995,5.63,44.56,67.9,0,0,730,1,17000000,58.24,83.73,0,11.2,25464850391,19599000,27,10,37,0,0,0
CAN,CAN,Canada,32,4,7,0,36.28,100,99,4.512911088,0.9,80,0,39,18,17,1.5,100,0,17.9,19,72,72,5,5,81,7,0,0,0,7.8,0,21.6,14.04,100,19.9,52.5,1.53,74.7,10,0.33,35078,7.2,32.56,0,0,130.85,6,69.8,32800000,0,98.3,0,14.3,1.74E+12,34126000,158,121,279,1,5,12
CPV,CPV,Cape Verde,33,1,52,81.2,2.59,87,88,2.715167358,2.3,58,0,20,5,39,3.5,89,0,13.2,5,230,61,168,25,70,210,0,0,0,4.78,0,0,87.48,88.5,0.18,17.2,3.37,52.9,0,0,2831,4.38,50.52,81.22,96.25,0,150,10.2,418224,81.36,99.31,101.04,0,1901136230,496000,2,1,3,0,0,0
CAF,CAF,Central African Republic,34,3,78,48.6,0.69,38,53,3.629919036,1.7,38,0,18,6,42,4.7,54,27.9,10.9,0,467,37,345,114,48,980,10.8,44.6,21.8,1.53,0,0,122.13,53.4,0,2.5,0,19,-1,6.36,675,1.99,61.33,48.57,58.52,0,1100,0.3,0,24.29,59.78,66.64,6.04,2165868600,4401000,3,3,6,0,0,0
TCD,CHA,Chad,35,3,96,25.7,1.17,49,71,4.019863714,3.1,26,0,17,5,46,6.3,14,2.8,9.5,0,445,41,299,124,46,1500,4.4,44.8,33.9,0.31,0,9.4,174.48,14.4,0,2.1,6.2,2.8,-2,3.54,1749,0,0,25.65,37.56,0,1100,0.2,9657069,31.19,60.98,41.73,0,9485741541,11227000,2,1,3,0,0,0
CHL,CHI,Chile,36,5,24,95.7,11.3,89,90,4.216561735,1,88,2,31,12,24,1.9,100,60.7,14.1,11,91,67,15,8,78,16,0,0,0,6.6,35.5,37.9,60.4,99.8,4.35,67.8,1.94,56,9,0.29,12262,3.81,54.92,95.72,98.99,114.75,31,13.9,16000000,122.94,98.26,100.38,18.63,2.49E+11,17113688,14,21,35,0,0,0
CHN,CHN,China,37,7,1,90.9,4.66,96,100,6.123353059,0.6,42,9.9,33,11,21,1.7,98,90.2,9.9,14,116,64,99,20,73,45,9.2,21.8,6.8,5.2,5.5,31.8,5.77,97.8,2.87,29.9,1.73,86.9,-7,0.08,4091,4.25,46.9,90.92,98.86,34.8,56,4.1,1300000000,98.25,99.91,99.3,8.73,7.30E+12,1338300000,208,163,371,38,27,23
COL,COL,Colombia,38,5,46,92.8,6.13,88,89,4.65856465,1.4,73,7,26,8,30,2.3,96,78.2,17,14,131,62,45,17,74,130,4.2,16.2,5.1,5.68,32.8,0,69.08,96.4,0.71,47.9,2.22,78.2,7,0.57,6306,2.88,56.23,92.85,97.96,34.44,130,5.5,43000000,99.77,103.41,100.88,15.28,3.32E+11,46295000,63,46,109,1,3,4
COM,COM,Comoros,39,3,33,0,1.14,50,60,2.912753304,2.5,38,0,19,4,42,4.5,62,25.7,8,2,214,55,44,51,65,400,21.5,46.9,25,0.31,18.1,20.7,52.93,61.8,6.66E-04,2,4.3,25.7,6,0.04,1063,0,0,0,0,0,480,0.6,671247,50.49,84.2,0,0,6.10E+08,735000,2,1,3,0,0,0
COD,COD,Congo,40,3,62,67.2,0.27,47,60,4.782787839,3.2,33,0,16,4,47,6.7,61,31.4,7.2,1,417,37,392,129,47,1100,6.5,44.4,33.6,1.86,0,8.1,225.5,60.7,0,4.8,6.7,31.4,4,1.31,264,0,0,67.17,70.42,0,990,0,60800000,38.46,73.24,80.9,6.32,0,60644000,0,0,0,0,0,0
COG,CGO,Congo-Brazzaville,41,3,66,84.4,2.42,52,58,3.566908655,2.2,61,0,19,5,42,4.6,83,44.3,4,2,386,46,403,79,54,740,8.5,31.2,11.8,2.6,23.8,6.6,120.41,86.2,0,12.3,4.49,44.3,-4,3.72,3621,0,0,84.68,97.44,0,510,0.4,3602269,67.1,90.16,98.13,8.54,14748024198,4043000,3,4,7,0,0,0
COK,COK,Cook Islands,42,6,0,0,0,75,73,1.146128036,-2.5,64,0,0,8,34,3,100,0,12.4,12,123,62,16,16,73,0,0,0,0,3.73,45.1,28.1,0,0,0,0,0,0,0,0,9000,0,0,0,0,0,0,0,0,0,0,0,0,248000000,20000,5,3,8,0,0,0
CRI,CRC,Costa Rica,43,5,38,94.9,9.22,88,87,3.643353962,1.6,62,3.3,26,8,28,2.1,94,0,21.5,13,95,67,14,11,78,30,0,0,0,5.65,18.7,16.8,73.78,98.5,1.08,25.4,2.1,96,10,0.33,8661,4.14,48.2,94.87,97.61,7.4,43,21.9,4016173,91.99,101.64,100.87,0,41006959585,4659000,3,8,11,0,0,0
CIV,CIV,Cote d'Ivoire,44,3,66,48.7,1.58,49,61,4.276783385,1.8,45,14.8,19,5,41,4.6,57,0,4.1,1,431,39,420,90,53,810,5.1,34,20.2,1.77,16.5,9,117.38,56.8,0.01,12.9,4.46,12.9,0,4.57,1575,5.21,44.58,48.73,60.72,14.24,690,1.6,17300000,42.84,68.41,73.59,14.51,24074625536,19738000,6,4,10,0,0,0
HRV,CRO,Croatia,45,2,7,98.1,13.85,90,91,3.658583715,0.1,57,2,41,22,15,1.3,100,0,13.9,25,113,67,40,5,76,7,0,0,0,12.25,24.9,34,13.69,99.9,2.61,80.2,1.35,69,9,0.03,13232,8.76,29.03,98.15,99.65,33.22,8,19.1,4495904,95.24,100.82,100.01,23.1,63850068202,4418000,45,65,110,3,1,2
CUB,CUB,Cuba,46,5,23,99.8,0,97,96,4.051808294,0.1,75,0,36,16,19,1.5,100,73.3,10.8,59,104,68,9,5,78,45,0,0,0,2.26,10.3,35.9,48.32,99.9,0,1.2,1.49,77.1,-7,0.07,7407.24,0,0,99.8,99.96,0,33,2.6,11300000,92.63,99.14,100,0,64100000000,11258000,45,65,110,5,3,6
CYP,CYP,Cyprus,47,2,2,96.8,25.06,99,99,2.927370363,1.1,69,0,35,17,19,1.6,100,0,6.4,23,58,68,5,3,80,10,0,0,0,11.52,10.9,0,8.03,99,4.2,86.1,1.61,0,10,0.08,24473,0,0,96.8,99.77,38.73,47,30.9,780133,100.08,100.91,100.08,26.59,24689602446,659350,4,9,13,0,1,0
CZE,CZE,Czech Republic,48,2,5,0,20.92,94,91,4.008131562,0,73,0,39,20,14,1.2,100,0,13.6,36,108,68,10,3,77,4,4.4,2.6,2.1,12.99,35,31,11.18,99.9,6.93,115.2,0,72,10,0.02,20281,10.29,25.4,0,0,30.75,9,21.6,0,102.21,100.65,0,15.56,2.15E+11,10520000,65,68,133,4,3,3
DNK,DEN,Denmark,49,2,3,0,36.19,96,95,3.73479983,0.2,86,0,40,22,19,1.8,0,0,15.6,36,88,70,8,3,79,3,0,0,0,11.71,0,33.4,6.16,0,24.91,100.3,1.8,0,10,0.15,33626,8.34,24.7,0,0,68.8,5,65.5,5432335,99.07,101.5,0,32.44,3.33E+11,5547000,50,65,115,2,4,3
DJI,DJI,Djibouti,50,1,13,0,2.18,34,42,2.913283902,1.8,87,0,20,5,38,4.1,93,17.8,13.4,2,343,43,809,86,56,650,14.8,38.8,25.6,1.79,14.9,0,25.35,60.6,0.01,6.4,3.95,17.8,2,3.09,1964,0,0,0,0,0,273.75,2.32,476703,31.22,75.64,0,0,1140000000,889000,3,3,6,0,0,0
DMA,DMA,Dominica,51,5,0,0,7.87,79,75,1.832508913,-0.3,71,0,0,11,28,2.1,99,0,9.2,5,150,64,16,13,74,0,0,0,0,7.5,17.2,0,0,87.5,3.98,51.36,0,50,0,0,8576,0,0,0,0,0,0,13.65,69029,108.23,101.29,0,0,4.82E+08,68000,1,1,2,0,0,0
DOM,DOM,Dominican Republic,52,5,59,87,5.55,78,76,3.982949289,1.5,68,2.8,24,8,33,2.9,96,69.8,9.5,19,209,60,89,25,70,150,8.6,11.7,4.2,6.66,14.9,15.4,110.28,95.5,0.7,40.7,0,61.3,8,1.11,5173,4.13,49.9,87,94.22,0.81,150,0,0,86.85,103.63,102.6,16.77,55611245616,9927000,20,15,35,1,1,0
ECU,ECU,Ecuador,53,5,50,91,6.81,97,96,4.120639728,1.1,63,0,24,9,32,2.6,80,72.7,7.3,15,166,62,128,21,73,210,5.1,29,6.2,2.36,25.1,14.9,83.48,74.7,0.21,47.2,2.58,72.7,6,0.3,6533,3.34,53.55,90.98,96.44,8.64,130,5.5,13400000,105.67,100.09,100.12,27.25,67002768302,14465000,13,23,36,0,0,0
EGY,EGY,Egypt,54,1,24,71.4,4.94,94,98,4.870204857,1.8,43,3.1,23,7,33,3,74,59.2,7.3,24,186,59,24,29,68,130,14.1,23.8,5.4,0.21,12.6,15.1,42.93,74.2,0.12,19.1,0,59.2,-3,0.02,5049,8.94,34.41,71.41,84.93,88.83,84,3.3,0,97.99,93.03,87.65,14.07,2.30E+11,81121000,35,81,116,0,2,0
SLV,ESA,El Salvador,55,5,52,74.1,5.61,94,94,3.830075166,1.4,60,19,24,8,34,2.7,69,67.3,15.6,12,191,60,50,22,71,170,5.8,24.6,6.1,3.72,19,0,83.44,92.4,0.63,35,2.68,67.3,7,0.81,5403,2.67,52.36,80.64,88.46,21.22,150,4.5,6704932,88.75,98.14,104.26,12.49,23054100000,6193000,5,5,10,0,0,0
GNQ,GEQ,Equatorial Guinea,56,3,64,87,16.62,83,91,2.695481676,2.4,39,0,19,6,42,5.4,63,0,7,3,449,46,256,124,46,680,14,42.6,15.7,3.38,0,0,125.19,64.6,0.04,19.3,5.36,0,-5,3.57,11999,0,0,86.99,94.86,0,880,1.4,529034,58.25,82.52,100.15,0,19789801404,700000,1,1,2,0,0,0
ERI,ERI,Eritrea,57,3,42,0,0.68,43,50,3.671358003,3.6,20,0,18,4,43,5.2,28,8,4.2,0,251,50,94,48,63,450,1.6,43.7,34.5,0.59,6.6,9.1,77.66,28.3,0,0.9,5.05,8,-7,1.23,685,0,0,0,0,0,630,0.4,4669638,51.59,71.71,0,0,2608715447,5254000,1,11,12,0,0,0
EST,EST,Estonia,58,2,10,99.8,18.09,94,95,3.127104798,-0.3,69,2,39,22,15,1.5,100,0,11.3,33,186,64,39,5,73,25,0,0,0,9,30.8,38.8,21.88,99.8,13.31,108.8,1.49,70.3,6,1.3,16654,6.79,36.03,99.77,99.77,25.42,63,47.4,1332893,105.62,99.68,100.08,16.23,22184722472,1340000,9,24,33,0,1,1
ETH,ETH,Ethiopia,59,3,54,35.9,0.63,68,74,4.908597599,2.5,16,23,18,5,44,5.4,6,14.7,10.6,0,326,41,378,77,56,720,5.1,50.7,34.6,0.86,7.9,4.3,100.25,5.7,2.27E-04,0.5,5.29,14.7,1,2.11,591,9.12,29.97,35.9,49.9,0,850,0.3,73100000,41.33,77.14,61.9,10.67,31708848033,82950000,17,18,35,3,1,3
FJI,FIJ,Fiji,60,6,17,0,4.45,91,91,2.920645001,0.6,51,0,24,7,33,2.8,99,0,9.1,5,212,59,22,16,69,210,0,0,0,1.72,11.5,14.4,35.62,99,0.85,24.2,2.75,44,6,0.09,4209,0,0,0,0,19.57,75,5.2,893354,100.92,102.33,0,21.41,3812749216,860000,3,6,9,0,0,0
FIN,FIN,Finland,61,2,5,0,33.17,97,97,3.721068302,0.3,61,0,41,22,17,1.8,100,0,12.1,33,96,71,5,3,79,7,0,0,0,9.31,0,28.1,9.8,99.9,22.38,100.4,1.83,0,10,0.07,30469,9.62,26.88,0,0,107.19,6,48.2,5223442,99.91,102.02,0,22.62,2.66E+11,5364000,28,28,56,0,1,2
FRA,FRA,France,62,2,4,0,32.24,99,98,4.787672965,0.6,77,0,39,21,18,1.9,99,81.8,16.7,34,91,72,14,4,81,8,0,0,0,11.43,0,31.7,7.33,99,15.56,79.5,1.89,74.6,9,0.35,29644,7.18,32.74,0,0,82.32,17,48.7,60700000,98.97,99.98,0,22.42,2.77E+12,64895000,148,187,335,11,11,12
GAB,GAB,Gabon,64,3,72,83.8,11.18,88,88,3.117602692,1.5,84,0,22,7,35,3.1,86,32.7,13.9,3,350,51,354,60,58,520,5.6,26.3,8.8,8.01,0,0,87.61,85.5,0.12,47.1,3.06,32.7,-4,5.96,12742,0,0,84.02,96.24,0,420,3,1394307,74.7,95.82,97.74,0,17051616749,1505000,2,26,28,0,1,0
GMB,GAM,Gambia,65,3,83,0,1.11,64,59,3.220892249,2.8,55,0,20,6,41,4.8,57,9.6,8.7,1,278,50,257,84,59,690,3,24.1,15.4,2.59,0,16.2,107.44,56.8,0,16.3,0,17.5,-5,0.85,726,4.78,47.36,0,0,0,540,1.6,0,63.04,101.81,0,22.25,1109306596,1729000,1,1,2,0,0,0
GEO,GEO,Georgia,66,2,23,0,3.88,91,88,3.646697731,-0.9,52,6.5,36,18,18,1.4,92,47.3,5.6,47,173,64,84,28,70,66,0,0,0,1.47,24.6,31.9,32.11,92.4,0.05,26.3,1.41,47.2,7,0.06,3505,5.37,40.8,0,0,5.53,32,3.8,4677401,86.98,99.81,0,12.11,14366566609,4452000,6,29,35,1,3,3
DEU,GER,Germany,67,2,5,0,32.68,98,98,4.917195564,0,75,0,42,25,14,1.4,100,0,17.6,34,81,72,6,4,80,4,0,0,0,11.99,0,31.6,9.93,0,12.97,95.8,1.36,74.7,10,0.11,30496,8.52,28.31,0,0,43.82,8,48.5,82400000,94.59,98.66,0,11.07,3.57E+12,81777000,176,219,395,11,19,14
GHA,GHA,Ghana,68,3,37,57.9,1.24,71,73,4.361878869,2.1,49,0,20,6,39,4,50,25.2,6.8,2,331,50,203,76,57,560,4.5,35.6,18.8,1.57,11.7,5.5,60.95,49.7,0.01,13,3.84,16.7,8,2.03,1225,5.58,40.8,57.9,70.66,15.49,540,0.5,21900000,70.68,92.6,86.23,22.36,39199656051,24392000,3,6,9,0,0,0
GRC,GRE,Greece,69,2,5,96,30.87,99,100,4.046221937,0.2,59,0,40,23,14,1.3,0,0,11.5,50,76,71,18,4,80,3,0,0,0,9.01,16.2,51.8,9.1,0,1.44,92.3,1.33,0,10,0.16,25520,6.75,34.27,95.99,98.94,51.11,9,9,10700000,100.23,98.55,100.1,17.21,2.99E+11,11316000,39,66,105,0,0,2
GRD,GRN,Grenada,70,5,26,0,8.77,83,84,2.025305865,0.3,31,0,23,10,33,2.3,100,0,9.5,10,232,59,5,17,68,0,0,0,0,6.67,16.7,0,45.9,100,3.03,45.5,2.3,54,0,0,9128,0,0,0,0,0,0,11.63,89502,92.51,99.12,0,0,8.16E+08,104000,4,6,10,1,0,0
GTM,GUA,Guatemala,71,5,60,69.1,5.12,92,96,4.114911084,2.5,48,13.5,18,6,43,4.3,41,43.3,14.7,9,222,57,79,31,68,290,5.6,54.3,17.7,1.46,16.5,14.4,110.48,41.4,0.21,35.8,4.15,43.3,8,0.79,4897,3.88,49.39,69.1,82.22,1.11,240,1.8,12000000,73.66,91.63,90.75,9.63,46900000257,14389000,7,12,19,0,1,0
GIN,GUI,Guinea,72,3,76,29.5,1.13,66,77,3.962889987,2,33,0,18,5,43,5.6,38,9.1,4.7,1,343,45,265,98,53,910,5.1,39.3,22.5,0.2,0,0,157.04,38.1,0,2.4,5.44,9.1,-1,1.53,946,6.99,38.6,29.48,46.55,0,740,0.6,9452670,58.3,72.57,57.45,11.13,5131221608,9982000,1,2,3,0,0,0
GNB,GBS,Guinea-Bissau,73,3,0,0,0.46,37,53,3.216429831,3,30,0,16,5,48,7.1,39,7.6,4,1,407,41,219,119,48,1100,5.1,36.1,21.9,2.19,0,0,192.03,38.8,0,7.1,7.07,10.3,6,1.89,569,5.2,47.05,0,0,0,1100,0,1413446,26.94,64.96,0,0,9.73E+08,1515000,2,2,4,0,0,0
GUY,GUY,Guyana,74,5,45,0,3.41,89,89,2.868644438,-0.1,28,0,27,9,31,2.4,94,34.6,8.3,5,246,55,164,46,64,470,5.5,13.8,11.9,3.84,14.9,0,65.82,94,0.27,37.5,2.33,34.6,6,2.49,3232,4.47,43.2,0,0,23.6,170,3.5,765283,122.9,98.55,0,0,2260000000,755000,2,4,6,0,0,0
HTI,HAI,Haiti,75,5,34,0,1.07,22,21,3.975247941,1.6,39,53.9,21,6,38,3.7,26,32,29.8,3,282,44,299,60,61,670,3.9,29.7,18.9,8.3,23.2,0,48.84,26.1,0,5.9,3.54,32,5,2.17,1175,2.38,59.21,0,0,0,680,0,8121622,27.39,94.41,0,0,7346156703,9993000,2,3,5,0,0,0
HND,HON,Honduras,76,5,54,80,3.42,97,96,3.843170465,2,47,14.9,20,6,39,3.4,67,65.2,15,6,181,58,76,23,70,280,5.8,29.9,8.6,2.92,20.4,0,96.86,66.9,0,17.8,3.31,65.2,7,0.71,3266,3.38,53.84,80.01,88.94,8.8,110,1.6,7167902,81.84,108.77,104.63,16.94,17259407972,7600000,3,28,31,0,0,0
HKG,HKG,Hong Kong,77,6,0,0,0,0,0,0,0,0,0,0,0,0,0,0,0,0,0,0,0,0,0,0,0,0,0,0,0,0,0,5.35,100,24.35,123.5,0.97,86.2,0,0,35680,5.26,43.44,0,0,593.25,7,45.38,6898686,53.91,48.12,0,0,2.44E+11,7068000,20,22,42,0,0,1
HUN,HUN,Hungary,78,2,10,0,16.97,88,89,4.002511631,-0.3,67,2,39,21,15,1.3,100,0,10.4,30,177,65,19,6,73,6,0,0,0,13.6,27.8,39.8,19.99,99.6,6.46,92.3,1.28,77.4,10,0.05,17014,8.58,30.06,0,0,29.48,16,14.6,10000000,93.92,98.99,0,20.25,1.40E+11,10000000,63,95,158,8,4,5
ISL,ISL,Iceland,79,2,8,0,33.74,97,98,2.474216264,0.9,93,0,35,16,22,2,0,0,18.1,38,59,73,4,2,81,4,0,0,0,6.99,0,26.3,15.74,0,26.29,103.4,2.05,0,0,0.2,35630,0,0,0,0,171.4,0,47.1,296737,99.2,99.7,0,28.22,14059073613,318000,6,22,28,0,0,0
IND,IND,India,80,7,48,61,2.46,87,90,6.061358598,1.5,29,34.3,24,8,33,2.9,47,56.3,3.4,6,241,53,168,57,63,450,1.9,47.9,43.5,0.29,13.7,18.6,64.65,46.6,0.12,8.2,2.81,56.3,9,0.38,2126,8.08,36.8,61.01,76.43,68.64,540,1.2,1080000000,84.85,91.37,80.47,10.38,1.85E+12,1224615000,23,60,83,0,2,4
IDN,INA,Indonesia,81,6,27,90.4,3.31,94,97,5.359577484,1.2,49,7.5,27,8,28,2.2,66,60.3,5.3,1,212,58,234,26,68,420,5.1,28.6,19.7,0.09,13.5,35.4,42.79,71.5,0.05,21.1,2.18,56.7,8,0.15,3234,7.15,39.41,90.38,98.71,28.38,230,1.4,218000000,99.43,97.3,99.67,12.33,8.47E+11,239870000,9,13,22,0,1,1
IRN,IRI,Iran,82,1,17,82.4,9.8,100,91,4.846769954,1.2,67,0,24,6,28,2,97,73.8,9.2,9,138,58,22,30,71,140,0,0,0,0,26.6,17.6,21.97,89.6,0.03,10.4,0,73.8,-6,0.18,10692,6.46,38.35,82.44,97.43,20.17,76,10.5,0,96.13,105.04,98.6,7.85,3.87E+11,73973000,8,45,53,4,5,3
IRQ,IRQ,Iraq,83,1,8,74.1,0,82,95,4.454936281,1.8,67,0,19,5,41,4.4,89,49.8,3.4,7,436,50,56,37,56,300,15,27.5,7.1,0.21,20.3,14.2,46.18,88.5,0,2.2,4.26,49.8,-9,0,3200,0,0,74.05,84.8,0,250,0.8,26100000,74.96,77.6,90.53,0,1.15E+11,32031000,3,5,8,0,0,0
IRL,IRL,Ireland,84,2,9,0,34.73,95,94,3.625415352,1.9,61,0,34,15,21,2,100,0,17.3,29,72,70,13,4,80,1,0,0,0,13.69,0,26.3,17.37,100,7.75,102.9,1.96,60,10,0.19,38058,7.44,34.28,0,0,56.95,5,49.7,4015676,96.52,103.32,0,25.26,2.17E+11,4475000,30,36,66,1,1,3
ISR,ISR,Israel,85,1,7,0,23.84,97,96,3.833147112,1.7,92,0,29,13,28,2.8,0,0,11.1,37,68,71,8,4,81,4,0,0,0,2.47,0,24.6,14.74,0,17.76,112.4,2.75,0,10,0.11,23846,5.71,39.2,0,0,92.58,17,73.4,6276883,101.2,100.29,0,27.87,2.43E+11,7624000,18,20,38,0,0,0
ITA,ITA,Italy,86,2,3,98.4,28.97,98,99,4.769222193,0.2,68,0,42,26,14,1.4,99,0,14.2,37,64,73,7,3,81,3,0,0,0,8.02,0,26.1,6.57,99,11.64,123.1,1.38,60.2,10,0,27750,6.5,36.03,98.42,99.81,45.1,5,31.3,58100000,99.76,98.86,100.02,21.3,2.19E+12,60483000,122,159,281,8,9,11
JAM,JAM,Jamaica,87,5,32,79.9,7.05,90,90,3.431202885,0.6,53,2,25,10,31,2.5,97,69,4.2,9,177,65,7,26,72,170,7.5,4.5,3.1,1.74,19.5,15,82.3,96.7,1.7,105.8,2.43,69.1,9,1.53,7132,5.28,45.51,79.9,0,134.11,87,6.2,2735520,82.28,101.19,0,27.39,15069767442,2702000,25,25,50,4,4,4
JPN,JPN,Japan,88,6,3,0,32.84,100,100,5.107050473,0,66,0,43,27,14,1.3,100,52,17.7,21,67,75,22,3,83,6,0,0,0,7.59,0,29.4,3.45,99.8,17.51,75.3,1.27,55.9,10,0.01,30290,10.58,24.85,0,0,104.12,10,54.1,127000000,101.92,100.2,0,11.94,5.87E+12,127451000,162,141,303,7,14,17
JOR,JOR,Jordan,89,1,15,91.1,4.82,90,89,3.758078822,3.3,83,2,21,5,37,3.2,100,55.8,9.5,24,152,61,5,21,71,62,4.7,12,3.6,0.31,17.2,36.5,25.59,99.5,0.45,55,3.13,55.8,-2,0,4294,6.69,38.84,91.13,98.98,298.45,41,5.3,5759732,100.24,100.98,100.09,24.37,28840197019,6047000,4,5,9,0,0,0
KAZ,KAZ,Kazakhstan,90,2,13,99.5,8.7,90,90,4.185088643,0.7,58,2,29,10,24,2.2,100,0,10.4,39,315,56,130,26,64,140,16.2,17.4,3.5,2.96,11.4,26.6,29.77,99.4,0.02,36.4,2.31,50.7,-6,0.1,8699,7.45,33.91,99.51,99.85,18.42,210,0,15200000,107.13,98.87,100.06,20.58,1.86E+11,16323000,41,74,115,7,1,5
KEN,KEN,Kenya,91,3,58,73.6,1.47,76,75,4.562923026,2.6,21,0,18,4,43,5,42,39.3,6.1,1,416,44,384,79,53,560,5.8,35.8,16.5,1.51,15.1,14.7,103.81,41.6,0,13.5,4.96,39.3,8,6.82,1359,5.99,42.5,73.61,80.32,33.37,1000,1.4,33800000,92.62,95.8,101.12,18.29,33620684016,40513000,21,29,50,2,4,5
KIR,KIR,Kiribati,92,6,0,0,6.23,98,96,1.973127854,1.7,42,0,0,6,32,4.2,90,0,13,2,247,54,372,47,65,0,0,0,0,0.45,0,0,0,88.9,0,0.61,0,20.9,0,0,3377,0,0,0,0,0,0,0.9,103092,124.81,106.62,0,0,1.78E+08,100000,1,2,3,0,0,0
PRK,PRK,Korea South,94,6,1,0,22.99,93,100,4.681693392,0.4,81,0,36,14,18,1.2,100,0,11.9,16,84,68,88,5,79,14,0,0,0,7.87,10.2,29.7,3.68,100,25.24,79.4,1.21,80.5,8,0.04,21342,7.91,31.59,0,0,90.74,20,54.5,48600000,104.06,95.5,0,15.73,12280000000,24589122,40,15,55,4,0,2
KOR,KOR,Korea North,93,6,0,0,0,0,0,4.374894919,0.4,62,0,32,14,24,1.9,97,68.6,6,33,200,59,178,42,66,370,0.9,44.7,17.8,3.26,0,0,1.46,84.96,0,0,1.85,62,-9,0.01,1596.68,0,0,0,0,0,25.13,0,22900000,0,0,0,0,1.12E+12,48875000,114,141,255,13,8,7
KWT,KUW,Kuwait,95,1,7,93.3,48.31,83,84,3.443888547,2.9,98,0,29,3,24,2.2,100,0,4.9,18,62,67,24,9,78,4,0,0,0,0.03,20.9,0,13.59,100,0.99,88.6,2.18,50.2,-7,0,44947,0,0,93.27,99.73,161.03,5,17.6,2335648,100.27,101.89,100.1,0.98,1.77E+11,2736000,2,8,10,0,0,1
KGZ,KGZ,Kyrgyzstan,96,2,13,98.7,1.79,85,86,3.720903171,1.1,36,2,24,7,30,2.5,98,0,8.7,24,236,55,123,36,66,150,10.7,18.1,2.7,3.63,7.2,24.7,31.36,97.9,0.05,10.3,0,47.8,3,0.11,1728,8.92,30.31,98.7,99.7,1.71,110,1.7,0,96.74,100.16,100.09,0,5918610958,5448000,3,11,14,0,0,0
LAO,LAO,Laos,97,6,55,68.7,1.74,81,86,3.760347079,1.7,21,27,20,5,39,3.3,19,32.2,4.1,4,308,47,152,59,60,660,2.7,48.2,36.4,6.91,8.9,40.5,78.65,19.4,0,10.8,0,32.2,-7,0.11,1811,8.07,34.65,68.73,78.46,0,650,0.4,0,72.07,84.1,90.42,0,8297664741,6201000,1,2,3,0,0,0
LVA,LAT,Latvia,98,2,8,99.7,14.84,92,89,3.359645793,-0.6,68,2,40,22,14,1.3,100,0,10.2,31,223,63,57,8,71,10,0,0,0,9.61,37.6,39.4,15.33,100,2.64,81.1,1.29,48,8,0.78,13218,6.78,35.75,99.75,99.75,15.75,42,21.9,2290237,92.17,99.16,100.07,15.05,28252498853,2239000,14,32,46,1,0,1
LBN,LIB,Lebanon,99,3,9,0,9.6,82,82,3.607990859,1.1,87,0,27,10,28,2.2,98,0,11.3,24,162,60,11,27,70,150,0,15.2,3.4,3.24,59.7,18.1,25.72,98,3.24,27.8,2.21,58,7,0.11,10212,0,0,0,0,22.9,150,11.3,3826018,81.48,102.15,0,16.27,42185230768,4227000,7,3,10,0,0,0
LSO,LES,Lesotho,100,3,49,82.2,1.81,74,71,3.2999429,0.7,19,0,19,7,40,3.5,55,37.3,7.8,0,722,31,635,102,42,960,6.8,45.2,16.6,1.82,20.3,0,79.91,55.4,0,13.9,3.37,37.3,8,23.43,1415,1.51,63.2,82.22,0,0,550,0,2031348,62.3,103.9,0,44.34,2426200017,2171000,2,2,4,0,0,0
LBR,LBR,Liberia,101,3,0,60,0.26,39,40,3.553761698,3.9,59,0,16,4,47,6.8,51,0,16.4,0,457,35,331,157,44,1200,4.6,45.3,22.8,3.82,0,0,221.95,50.9,0,4.9,6.77,10,5,1.54,383,0,0,51.94,67.36,0,760,0,2900269,0,72.7,106.36,0,1161000000,3994000,2,2,4,0,0,0
LBY,LBA,Libya,102,1,3,85,11.63,91,95,3.78096503,2,85,0,25,6,30,2.8,100,0,6.5,13,146,64,18,17,72,97,16.2,20.7,4.3,0.01,11.1,0,3.45,99,0,5,2.72,45.2,-7,0,10804,0,0,84.16,98.04,0,97,2.3,5765563,0,107.85,96.92,0,71950000000,6355000,1,4,5,0,0,0
LTU,LTU,Lithuania,103,2,9,99.6,14.55,89,90,3.532499586,-0.5,66,2,38,21,16,1.3,100,0,13.3,40,223,63,62,7,71,11,0,0,0,9.89,32.1,33,19.66,100,6.86,127.1,1.26,46.6,10,0.11,14085,6.77,35.83,99.65,99.7,31.82,13,15.5,3596617,91.02,99.51,100.08,17.42,42725404055,3287000,23,39,62,2,1,2
LUX,LUX,Luxembourg,104,2,5,0,60.87,98,96,2.663700925,1,83,0,38,19,18,1.7,100,0,16.8,27,83,72,12,3,80,12,0,0,0,15.56,0,34.7,10.54,99.9,15.35,154.8,1.66,0,0,0.22,70014,8.43,30.76,0,0,140.2,28,62.1,468571,80.82,103.19,0,25.76,59474583333,507000,4,5,9,0,0,0
MKD,MKD,Macedonia,106,2,11,96.1,7.85,92,92,3.308777774,0.1,70,2,35,16,19,1.5,98,13.5,16.5,26,121,63,29,15,73,10,7.9,1.2,1.2,5.69,9,0,22.84,0,0.61,62,1.43,0,0,0,7393,6.06,38.99,96.13,98.74,11.11,23,6.8,2045262,97.22,98.55,99.49,0,10165373218,2060000,2,2,4,0,0,0
MDG,MAD,Madagascar,107,3,77,70.7,0.87,96,96,4.282372837,2.7,27,61,18,5,44,4.9,45,27.1,9.2,3,268,49,248,72,59,510,6.2,52.8,36.8,1.59,0,0,139.45,51.3,0,2.7,4.78,27.1,7,0.13,988,4.88,47.45,70.68,70.24,0,550,0.5,18000000,57.62,95.98,93.85,10.1,9946995390,20714000,4,3,7,0,0,0
MWI,MAW,Malawi,108,3,80,64.1,0.69,94,88,4.13261185,2.6,18,20.8,16,5,47,5.7,54,41.7,18,0,533,35,377,76,50,1100,10.2,52.5,18.4,1.41,18.4,15,144.7,53.6,0,3.3,5.59,41.7,6,12.28,691,7,39,64.13,76.01,8.07,1800,0.2,12700000,56.17,98.87,86.12,0,5700383783,14901000,2,1,3,0,0,0
MYS,MAS,Malaysia,109,6,6,88.7,12.16,100,100,4.4168734,1.8,68,0,25,7,31,2.7,100,0,7,7,155,63,103,10,72,62,0,0,0,1.06,25.8,28.8,13.55,98,1.98,75.2,2.6,54.5,3,0.46,11466,4.37,49.15,88.69,97.24,132.58,41,19.2,24000000,95.07,104.86,100.06,17.58,2.79E+11,28401000,13,17,30,0,1,1
MDV,MDV,Maldives,110,7,4,96.3,4.74,97,97,2.477121255,1.7,30,0,22,6,33,2.6,84,39,14,9,103,58,45,26,72,120,3.9,31.9,25.7,0,5.9,28.2,24.44,84,1.1,87.9,2.63,39,0,0.01,4017,0,0,96.33,98.17,0,110,11,349106,138.16,101.77,100.27,17.95,2050135788,316000,2,3,5,0,0,0
MLI,MLI,Mali,111,3,96,24,1,54,67,4.078021581,3,31,36.1,16,5,48,6.6,41,8.1,12.2,0,427,38,280,119,46,970,3.1,42.7,30.1,0.5,25.5,11.2,186.94,40.6,0,7.7,6.52,8.1,6,1.5,1027,6.15,40.1,24,24.19,0,1200,0.4,11400000,44.11,72.73,52.28,15.66,10589925352,15370000,2,4,6,0,0,0
MLT,MLT,Malta,112,1,8,87.9,20.99,91,92,2.607455023,0.5,96,0,38,19,17,1.4,100,0,14.7,39,62,71,6,5,79,8,0,0,0,6.02,0,28.7,13.93,98,11.07,80.8,1.37,0,0,0.08,20410,0,0,87.87,96.03,69.34,21,31.5,398534,96.37,99.18,103.65,26.39,8886572143,416000,2,3,5,0,0,0
MHL,MHL,Marshall Islands,113,6,0,0,8.04,66,67,1.763427994,2.2,66,0,0,6,32,3.9,95,0,15.1,5,290,55,220,50,63,0,0,0,0,0,0,0,0,0,0,0,0,0,0,0,0,0,0,0,0,0,0,0,0,0,0,0,0,173700000,54038,2,2,4,0,0,0
MRT,MTN,Mauritania,114,3,44,51.2,1.97,82,78,3.483444648,2.7,41,25.9,20,5,40,4.5,53,8,5.3,1,288,45,316,78,58,820,3.8,39.5,30.4,0.01,30.7,13.1,90.88,56.9,0.01,24.3,4.37,8,-5,0.82,1691,6.17,39.02,51.21,61.34,97.19,1000,1.4,3086859,46.01,102.79,81.92,0,4075675053,3460000,1,1,2,0,0,0
MUS,MRI,Mauritius,115,3,18,84.3,10.64,96,94,3.097604329,0.8,42,0,31,10,24,1.9,99,75.9,9.2,11,161,62,23,12,73,15,0,0,0,3.03,0,18.5,40.01,99.2,0.25,52.8,1.86,75.9,10,1.24,10155,0,0,84.3,94.54,41.61,24,16.2,1230602,97.22,99.56,101.75,18.14,11313454891,1281000,7,4,11,0,0,0
MEX,MEX,Mexico,116,4,47,91.6,11.99,97,98,5.02260156,1,76,3,26,9,30,2.3,94,70.9,11,20,122,65,21,29,74,60,7.6,15.5,3.4,4.57,28.6,24.7,66.88,83.3,1.86,44,2.21,73.7,8,0.3,11317,4.31,46.05,91.63,97.64,31.15,83,10.7,106000000,102.83,98.94,99.98,11.66,1.16E+12,113423000,38,68,106,1,3,3
FSM,FSM,Micronesia,117,6,22,0,6.07,0,0,2.045322979,0.5,22,0,20,5,38,3.9,88,0,18.9,6,179,58,101,33,69,0,0,0,0,1.23,46.2,0,0,0,0,0,0,0,0,0,0,0,0,0,0,0,0,0,0,0,0,0,0,318100000,111000,2,4,6,0,0,0
MDA,MDA,Moldova,118,2,14,99,2.66,88,88,3.583538819,-1.1,47,2,33,15,19,1.4,100,67.8,11.8,27,237,60,141,16,68,22,9.1,11.3,3.2,13.18,16,26,33.91,99.5,0.27,25.9,1.4,67.8,8,0.24,2362,7.81,33.22,99.06,99.7,22.09,36,2.6,4455421,92.11,101.72,100,18.49,7000318677,3562000,10,12,22,0,0,2
MCO,MON,Monaco,119,2,0,0,0,0,0,1.51851394,0.3,100,0,0,21,18,1.8,0,0,15.6,58,86,73,2,3,82,0,0,0,0,0,0,0,0,0,0,0,0,0,0,0,0,0,0,0,0,0,0,0,0,0,0,0,0,5424000000,35407,1,5,6,0,0,0
MNG,MGL,Mongolia,120,6,14,97.8,2.81,93,90,3.415807728,0.9,57,10.8,25,6,28,1.9,99,69,11,26,255,56,188,35,66,46,6.1,23.5,4.8,2.83,14.9,26.3,46.78,99.2,0.07,21.1,1.87,66,10,0.03,2643,7.47,32.8,97.77,97.71,1.98,110,11.9,2791272,93.37,108.28,101.48,19.87,8557529910,2756000,13,16,29,0,2,3
MNE,MNE,Montenegro,121,2,8,0,8.93,0,0,2.778874472,-1.1,61,0,35,18,19,1.8,99,0,20.1,20,134,0,32,9,74,0,15.6,7.9,2.2,0,6.8,0,0,0,0,0,0,0,0,0,0,0,0,0,0,0,0,0,0,0,0,0,0,4550463278,632000,16,18,34,0,1,0
MAR,MAR,Morocco,122,1,17,52.3,3.86,85,91,4.489297399,1.2,59,0,25,8,30,2.4,63,63,5.5,5,119,60,93,34,72,240,13.3,23.1,9.9,0.45,11,15,19.45,62.6,0.83,40.9,2.38,63,-6,0.1,3547,6.5,39.5,52.31,70.46,46.17,220,2.1,32700000,80.3,87.35,74.86,21.65,1.00E+11,31951000,18,54,72,0,0,1
MOZ,MOZ,Mozambique,123,3,92,38.7,0.66,73,79,4.32161914,2.1,35,36.2,18,5,44,5.2,48,16.5,12.6,0,477,37,443,96,50,520,6.3,47,21.2,0.52,8.2,12.8,160.07,47.7,0,7.6,5.11,16.5,6,12.16,743,5.42,47.29,38.71,46.97,0,1000,0.6,19400000,41.67,83.02,61.48,0,12797754231,23390000,2,4,6,0,0,0
NAM,NAM,Namibia,125,3,44,85,4.77,79,74,3.311117843,1.3,36,0,20,5,38,3.3,76,43.7,10.1,3,336,43,767,45,61,210,3.3,29.5,20.3,5.97,25.8,24.9,63.55,75.5,0,24.4,3.19,43.7,6,15.27,4547,1.4,74.33,85.04,92.34,6.66,300,10.9,2030692,77.85,103.43,102.55,25.88,12300698895,2283000,4,5,9,0,0,0
NRU,NRU,Nauru,126,6,0,0,0,0,0,1,0.2,100,0,0,6,32,3.1,100,0,25,8,381,55,106,25,61,0,0,0,0,0.87,0,49.2,0,0,0,0,0,0,0,0,2500,0,0,0,0,0,0,0,0,0,0,0,0,63000000,10372,0,2,2,0,0,0
NPL,NEP,Nepal,127,7,53,48.6,1.01,74,84,4.441553751,2,16,24.1,20,6,38,3.4,19,48,9.2,2,286,52,176,46,62,830,0.6,49.3,38.8,0.19,9.4,30.6,117.61,18.7,0,0.8,3.28,48,-6,0.49,1081,6.02,47.17,48.59,70.05,16.43,740,0.5,27700000,74.69,89.52,74.61,9.18,18884495628,29959000,3,2,5,0,0,0
NLD,NED,Netherlands,128,2,3,0,37.94,97,99,4.214287383,0.3,81,0,39,20,18,1.7,100,0,16.4,37,70,71,8,4,80,6,0,0,0,9.68,0,34.3,4.95,100,25.12,97.2,1.72,75,10,0.17,34724,7.6,30.9,0,0,94.29,16,68.5,16400000,99.57,97.71,0,22.98,8.36E+11,16616000,84,98,182,6,6,8
NZL,NZL,New Zealand,131,6,13,0,25.75,99,99,3.617000341,1,86,0,36,17,21,2,95,0,18.6,21,75,71,9,5,80,9,0,0,0,9.68,20.1,28.6,24.32,96.6,8.01,87.6,1.99,74.9,10,0.04,24554,6.45,36.17,0,0,39.55,7,49.3,4035461,92.91,103.81,0,31.68,1.41E+11,4368000,93,103,196,6,2,5
NIC,NCA,Nicaragua,132,5,59,76.7,2.72,90,90,3.742882171,1.3,59,45.1,21,6,37,2.8,67,68.6,16,4,181,61,58,29,71,170,7.1,25.2,7.8,2.48,25.1,0,115.36,66.9,0.19,19.2,2.76,68.6,8,0.21,2611,5.6,43.11,76.68,86.22,0,230,3.5,5465100,73.73,101.96,106.2,16.8,7297481501,5789000,3,3,6,0,0,0
NER,NIG,Niger,133,3,99,28.7,0.63,37,50,4.137891898,3.5,17,0,16,5,48,7.3,18,11.2,10.6,0,478,36,174,148,42,1800,3.5,54.8,39.9,0.05,11.7,0,205.98,17.7,0,2.3,7.19,11.2,6,0.8,613,2.58,50.54,28.67,36.55,0,1600,0.1,12200000,29.61,69.92,44.23,0,6016960988,15512000,2,4,6,0,0,0
NGA,NGR,Nigeria,134,3,63,69,1.41,59,68,5.160528554,2.4,49,70.8,18,5,44,5.5,35,12.6,3.5,3,423,42,311,99,48,1100,6.2,43,27.2,10.57,18.1,7.1,136.66,36.3,3.54E-04,14.1,5.32,12.6,4,3.17,1892,5.05,43.7,69.12,84.2,19.64,800,0.7,129000000,75.56,82.97,93.55,0,2.36E+11,158423000,23,30,53,0,0,0
NOR,NOR,Norway,136,2,4,0,50.07,98,98,3.669223874,0.6,77,0,38,20,19,1.8,0,0,17.9,38,70,72,6,3,80,7,0,0,0,5.5,0,32,8.86,0,21.44,102.9,1.85,0,10,0.11,47551,9.59,25.79,0,0,63.32,16,57.8,4593041,98.52,100.55,0,28.96,4.86E+11,4889000,32,33,65,2,1,1
OMN,OMA,Oman,137,1,5,81.4,19.74,75,73,3.405858399,1.6,71,0,23,4,33,3.1,98,0,5.4,17,133,64,13,10,74,64,1.7,15.9,13.1,0.26,15.2,13.1,11.32,98,0.33,51.9,3,31.8,-8,0,20334,0,0,81.36,97.28,49.52,87,4.9,3001583,94.26,97.89,98.77,7.39,71781535039,2783000,1,3,4,0,0,0
PAK,PAK,Pakistan,138,7,12,49.9,2.41,57,73,5.206672092,1.8,35,17,21,6,36,3.6,54,27.6,1.3,8,206,53,181,78,63,320,4.8,41.5,31.3,0.01,10.1,21.1,30.16,31,0.03,8.3,3.52,27.6,-5,0.09,2396,9.13,31.18,49.87,65.09,41.95,500,0.4,162000000,61.5,76.54,69.26,9.6,2.11E+11,173593000,2,21,23,0,0,0
PLW,PLW,Palau,139,6,0,0,14.34,94,98,1.301029996,0.5,70,0,0,6,32,2.5,100,0,16.4,16,227,60,51,10,69,0,0,0,0,0,0,24,0,0,0,0,0,0,0,0,0,0,0,0,0,0,0,0,0,0,0,0,0,1.80E+08,20472,3,2,5,0,0,0
PSE,PLE,Palestine,199,1,0,0,0,0,0,0,0,0,0,0,0,0,0,0,0,0,0,0,0,0,0,0,0,0,0,0,0,0,0,84.9,97,0.21,29.6,5.09,41.6,0,0,3542,0,0,92.39,98.99,111.15,100,4.6,3761904,95.32,102.91,99.66,0,4000000000,4152000,2,3,5,0,0,0
PAN,PAN,Panama,140,5,42,91.9,8.69,98,99,3.516931809,1.7,72,7.4,26,9,30,2.6,91,0,11.5,15,108,66,45,18,76,130,6.2,21.5,6.3,5.98,18.6,0,85.16,91.3,0.54,52.5,2.56,0,9,0.96,8399,2.5,56.08,91.9,96.08,32.77,160,4.1,3140232,96.65,100.74,99.06,9.26,30676800000,3517000,2,6,8,0,0,0
PNG,PNG,Papua New Guinea,141,6,38,57.3,1.63,0,0,3.792531762,2.2,13,0,20,4,40,4,38,0,7.3,0,273,52,250,54,62,470,0,0,0,1.62,47.7,0,58.56,42,0,1.3,3.78,25.9,10,0.95,1747,4.5,50.9,57.34,66.68,64.03,300,6.3,5545268,51.53,79.61,92.66,21.01,12937183216,6858000,4,4,8,0,0,0
PRY,PAR,Paraguay,142,5,32,93.2,4.04,95,94,3.779307828,1.9,59,13.6,22,7,35,3.2,100,72.8,13.2,11,132,62,71,19,75,150,6.3,18.3,2.8,3.73,25.7,24,76.3,77.1,0.09,30.6,3.08,72.8,8,0.54,3900,2.4,58.36,93.49,95.9,3.51,170,5.9,6347884,94.42,98.67,100.35,12.11,23877089240,6454000,4,4,8,0,0,0
PER,PER,Peru,143,5,29,87.9,6.49,97,96,4.440735959,1.1,73,10.5,25,8,31,2.5,73,71.3,13.1,12,136,61,162,21,73,240,11.8,31.3,5.2,3.83,23.4,0,61.56,86.9,1.29,20,2.51,45.8,9,0.43,6466,3.73,52.02,87.91,97.12,45.35,410,9.7,27900000,99.89,100.99,98.33,13.52,1.77E+11,29076000,7,9,16,0,0,0
PHL,PHI,Philippines,144,6,27,92.6,3.43,92,90,4.935829592,2,63,14.8,22,6,36,3.3,60,48.9,6.4,12,219,59,287,24,68,230,2.4,33.8,20.7,3.51,22.6,26,48.69,59.8,0.15,41.3,3.23,48.9,8,0.01,2932,5.44,44.53,92.59,95.06,40.68,200,4.5,87900000,95.91,102.79,103.21,12.98,2.25E+11,93261000,4,7,11,0,0,0
POL,POL,Poland,145,2,7,0,14.25,96,96,4.581380689,-0.1,62,2,37,17,16,1.2,100,0,9.9,20,145,66,25,6,75,8,0,0,0,8.09,19.5,35.6,13.74,99.9,2.48,75.7,1.23,49.4,10,0.08,13573,7.4,34.91,0,0,30.96,13,19.1,38600000,97.44,99.44,0,16.72,5.14E+11,38184000,87,130,217,2,2,6
PRT,POR,Portugal,146,2,9,93.9,19.96,98,98,4.024444617,0.5,58,0,39,22,16,1.5,100,67.1,15.5,34,93,69,32,3,79,11,0,0,0,11.54,0,35.8,14.63,99.9,11.25,109.1,1.46,0,10,0.48,20006,5.75,38.45,93.83,99.59,36.16,5,13.3,10600000,104.08,101.72,100.07,21.39,2.38E+11,10638000,34,46,80,0,1,0
PRI,PUR,Puerto Rico,147,5,0,0,0,0,0,0,0,0,0,0,0,0,0,0,0,0,0,0,0,0,0,0,0,0,0,0,0,0,0,52,87.33,3.02,84.8,1.83,77.7,0,0.5,19725.45,0,0,67.45,64.79,0,9.38,0,3911299,0,0,74.89,0,99202000000,3978000,6,19,25,0,1,1
QAT,QAT,Qatar,148,1,9,89,0,94,93,2.914343157,3.1,96,0,31,3,21,2.7,100,0,9.7,26,67,65,60,9,77,12,0,0,0,4.4,17.9,0,18.34,100,3.16,92.2,2.66,43.2,-10,0,68696,0,0,88.96,95.92,205.63,7,17.9,863051,93.91,99.08,102.8,21.33,1.73E+11,1759000,4,8,12,0,0,2
ROU,ROU,Romania,149,2,16,97.3,10.15,93,93,4.333084371,-0.4,54,2,37,19,15,1.3,99,70,12.4,19,157,63,128,14,73,24,8.3,12.8,3.5,9.74,18.3,32.6,33.74,98.1,3.47,61.8,1.3,70.3,9,0.12,9374,8.19,31.54,97.3,97.76,20.83,49,11.3,22300000,98.9,100.27,100.04,12.22,1.80E+11,21438000,49,54,103,2,5,2
RUS,RUS,Russia,150,2,14,99.4,12.74,91,91,5.156006702,-0.5,73,2,37,17,15,1.3,100,0,10.8,43,300,58,107,10,66,28,0,0,0,10.32,27.3,48.5,28.64,99.4,1.11,83.6,0,72.8,7,1.09,11861,6.15,39.93,99.44,99.72,71.76,67,13.2,0,94.14,99,100.09,16.61,1.86E+12,141750000,227,208,435,24,26,32
RWA,RWA,Rwanda,151,3,22,64.9,0.73,81,76,3.976074732,2.5,20,60.3,18,4,43,6,28,17.4,27.3,0,385,38,397,97,52,1300,6.7,51.7,18,6.93,0,0,42.08,38.6,0.01,3.2,5.92,17.4,-3,3.12,813,5.33,46.79,64.9,77.63,0,1400,0,8440820,35.5,101.9,97.88,9.05,6377408665,10624000,2,5,7,0,0,0
KNA,SKN,Saint Kitts and Nevis,152,5,0,0,12.44,78,64,1.698970004,1.3,33,0,0,11,28,2.3,100,0,9.5,11,165,62,11,17,71,0,0,0,0,6.73,16.6,0,0,100,1.07,20.74,0,54,0,0,13677,0,0,0,0,63.66,0,16.5,0,109.19,102.55,0,23.94,7.09E+08,52000,1,6,7,0,0,0
LCA,LCA,Saint Lucia,153,5,25,0,8.5,97,99,2.212187604,1.1,28,0,26,10,27,2.2,100,0,10.2,52,154,63,17,12,75,0,0,0,0,11.48,17.9,20.6,61.02,100,0,65.7,0,0,0,0.98,9279,5.23,42.58,0,0,0,0,17.3,0,106.18,104.92,0,0,1232180089,174000,3,1,4,0,0,0
VCT,VIN,Saint Vincent and the Grenadines,154,5,35,0,6.22,88,92,2.079181246,0.5,46,0,25,9,29,2.2,100,0,9.3,8,238,61,30,17,70,0,0,0,0,7,19.1,0,65.7,100,3.06,59.3,0,48,0,0,6752,0,0,0,0,0,0,13.2,0,92.04,100.61,0,22.43,6.88E+08,109000,1,2,3,0,0,0
WSM,SAM,Samoa,155,6,22,98.6,5.09,91,90,2.267171728,0.8,23,0,20,7,40,4.1,100,0,10.5,3,220,60,19,23,68,0,0,0,0,1.73,23.5,41,31.05,87.5,0.04,13.4,3.93,42.6,0,0,4872,0,0,73.93,74.51,0,48.75,0.35,177287,72.23,105.1,75.05,0,6.49E+08,184000,3,5,8,0,0,0
SMR,SMR,San Marino,156,2,0,0,0,0,0,1.491361694,1.4,93,0,0,26,14,1.3,0,0,13.3,474,48,73,6,3,82,0,0,0,0,0,0,0,0,0,0,0,0,0,0,0,0,0,0,0,0,0,0,0,0,0,0,0,0,1487000000,31534,3,1,4,0,0,0
STP,STP,Sao Tome and Principe,157,3,45,84.9,1.49,98,97,2.190331698,1.6,59,0,19,6,41,4,81,29.3,12.2,5,241,54,103,63,61,0,9.2,35.2,10.1,6.95,0,16.9,71.69,80.7,0,7.6,3.85,30.3,0,0,1460,0,0,84.91,95.42,0,0,0,187410,74.24,98.97,98.83,0,2.48E+08,165000,1,1,2,0,0,0
SAU,KSA,Saudi Arabia,158,1,7,82.9,22.3,87,87,4.383366483,2.4,81,0,24,4,34,3.5,96,0,8.7,14,178,61,44,21,70,18,0,0,0,0,15.9,14.7,29.51,96,0.29,57.6,3.35,20.8,-10,0,21220,0,0,82.86,95.85,204.74,23,34,26400000,93.38,94.74,97.65,0,5.77E+11,27448000,2,17,19,0,0,1
SEN,SEN,Senegal,159,3,50,39.3,1.56,70,71,4.081779227,2.5,42,17,19,6,42,4.9,52,11.8,6.7,0,271,48,270,60,59,980,2.4,20.1,14.5,0.46,14.9,10.7,93.95,51.9,0.15,14.8,4.69,11.8,8,0.75,1676,6.56,41.25,39.28,49.12,0,690,2.3,11700000,51.48,90.82,70.05,16.12,14291456855,12434000,7,28,35,0,0,0
SRB,SRB,Serbia,160,2,12,0,9.32,0,0,3.993480319,-0.1,52,0,37,19,18,1.8,99,41.2,14.3,20,141,0,32,7,73,0,19.3,8.1,1.8,0,13.5,42.3,0,0,0,0,0,0,0,0,0,0,0,0,0,0,0,0,0,0,0,0,0,45043430299,7291000,36,80,116,1,1,2
SYC,SEY,Seychelles,161,3,0,91.8,14.36,100,99,1.934498451,0.7,51,0,0,10,24,1.7,0,0,8.8,15,174,61,33,12,72,0,0,0,0,3.36,26.6,21.2,0,0,1.14,72.9,0,0,0,0,14202,0,0,45.92,49.53,0,0,13.88,81188,114.87,100.26,50.31,34.72,1007186292,87000,2,4,6,0,0,0
SLE,SLE,Sierra Leone,162,3,89,34.8,0.61,36,50,3.759138816,2.8,41,0,18,5,43,6.5,43,5.3,7.8,0,508,29,517,159,40,2100,4.7,38.4,24.7,6.39,0,0,172.47,43.2,0,2.2,6.47,5.3,5,1.62,790,6.49,39.96,34.83,47.93,0,2000,0,5867426,0,83.18,62.67,11.03,2242960927,5867000,1,1,2,0,0,0
SGP,SIN,Singapore,163,6,3,92.5,43.3,77,77,3.641672373,1.3,100,0,38,13,19,1.3,100,0,5.4,15,67,70,26,3,80,14,2.6,4.4,3.3,2.17,9.1,0,4.96,99.7,15.33,100.8,1.26,62,-2,0.14,41479,5.04,42.48,92.55,99.5,271.36,30,62.2,4425720,0,101.01,100.2,12.68,2.40E+11,5077000,15,8,23,0,0,2
SVK,SVK,Slovakia,164,2,10,0,17.06,92,92,3.731427587,0,56,0,36,16,16,1.2,100,0,13.8,31,136,66,15,7,74,6,0,0,0,10.35,26.6,30.9,20.15,99.5,3.37,84.1,1.25,74,9,0,15881,8.76,25.81,0,0,9.26,3,29.6,5431363,94.32,100.39,0,14.77,95994147901,5430000,20,26,46,0,1,3
SVN,SLO,Slovenia,165,2,3,99.7,23.97,95,96,3.301247089,0.1,51,0,41,21,14,1.3,100,0,13.5,24,104,69,13,3,78,6,0,0,0,6.74,21.8,26.5,6.47,99.9,9.83,89.4,1.28,73.8,0,0.02,23004,8.32,30.94,99.67,99.85,22.99,17,35.5,2011070,99.28,99.51,100.06,21.36,49539271105,2049000,40,28,68,1,1,2
SLB,SOL,Solomon Islands,166,6,36,0,1.85,61,62,2.684845362,2.4,17,0,20,5,40,4,43,0,12.6,1,164,56,135,55,67,220,0,0,0,0.97,0,0,45.21,85,0.1,1.3,3.87,6.8,8,0,1712,0,0,0,0,0,48.75,3.07,538032,68.8,93.33,0,0,8.38E+08,538000,2,2,4,0,0,0
SOM,SOM,Somalia,167,3,17,0,0,6,11,3.926599654,3,36,0,18,4,44,6.2,33,0,4.2,0,323,37,218,90,55,1400,4.7,42.1,32.8,0,15.6,0,68.19,33,0,6.1,6.04,14.6,0,0.53,932.96,0,0,0,0,0,1100,0.4,8591629,0,55,0,0,1071000000,9331000,1,1,2,0,0,0
ZAF,RSA,South Africa,168,3,32,82.4,8.9,88,88,4.683785252,0.7,60,10.7,24,7,32,2.7,92,60.3,9.9,8,564,44,940,56,51,400,0,0,0,6.72,23.6,18.4,65,92,0.35,71.6,2.64,60.3,9,18.2,8477,3.47,57.78,82.4,93.91,233.58,230,8.3,44300000,100.21,100.04,100.85,27.41,4.08E+11,49991000,64,69,133,3,2,1
ESP,ESP,Spain,169,2,5,97.2,28.2,99,100,4.642335895,1.1,77,0,39,22,14,1.4,0,0,15.3,33,75,73,30,4,81,4,0,0,0,11.68,0,33.7,9.64,0,11.6,100,1.41,80.9,10,0,27270,6.97,34.66,96.49,99.55,85.26,4,25.4,40300000,102.96,102.6,100.03,12.34,1.49E+12,46071000,114,175,289,3,10,4
LKA,SRI,Sri Lanka,170,7,14,90.7,3.73,100,99,4.283459536,0.5,15,5.6,30,10,24,1.9,97,70,8.3,6,166,62,60,11,72,58,1,18.4,22.8,0.28,9.1,16.5,26.53,96,0.13,16.2,1.88,70,5,0.03,3481,6.99,40.17,90.68,95.59,24.3,92,2.7,20100000,107.55,103.6,101.11,14.24,59172135299,20860000,3,4,7,0,0,0
SDN,SUD,Sudan,171,3,25,60.9,1.78,37,45,4.576421981,2.2,42,0,20,6,40,4.4,49,7.6,6.3,3,296,49,242,62,60,450,5.2,47.6,38.4,0.3,14,0,61.74,49.2,0,5.2,4.23,7.6,-4,1.44,2249,0,0,60.93,77.18,0,590,1.8,40200000,46.87,88.87,84.41,6.39,55097394769,43552000,2,4,6,0,0,0
SUR,SUR,Surinam,172,5,31,89.6,7.72,98,95,2.658011397,0.6,74,0,26,9,29,2.5,71,42.1,8,5,222,59,64,29,68,72,2.9,14.5,11.4,0,10.5,0,41.61,84.5,0.24,51.8,2.42,42.1,0,2.11,7234,0,0,89.6,94.88,0,110,4.3,438144,87.19,112.56,98.46,0,3790000000,525000,2,3,5,0,0,0
SWZ,SWZ,Swaziland,173,3,36,79.6,4.7,79,78,3.054613055,0.8,24,0,19,5,39,3.6,74,46,9.4,2,662,34,1155,112,42,390,14.9,36.6,9.1,4.6,11.3,8.9,35.09,74,0,19.4,3.45,48.1,-9,26.35,4384,4.34,50.4,79.56,88.42,7.53,370,3.3,1138227,66.68,94.65,103.2,26.02,3977754360,1056000,1,2,3,0,0,0
SWE,SWE,Sweden,174,2,3,0,34.31,95,95,3.957990178,0.4,84,0,40,24,17,1.8,0,0,13.4,33,64,73,6,3,81,3,0,0,0,5.96,0,22,4.53,0,21.25,100.5,1.8,0,10,0.08,31995,9.12,25,0,0,113.04,2,76.1,9001774,103.94,99.6,0,20.87,5.38E+11,9378000,84,56,140,1,4,3
CHE,SUI,Switzerland,175,2,2,0,40.84,89,89,3.872447648,0.4,76,0,40,21,16,1.4,100,0,19.6,40,63,73,7,4,82,5,0,0,0,10.83,0,26.5,4.54,0,22.29,91.6,1.42,82,0,0.5,35520,7.55,33.68,0,0,256.54,7,82.3,7489370,91.39,96.99,0,10.49,6.36E+11,7826000,30,76,106,2,2,0
SYR,SYR,Syria,176,1,29,80.8,4.11,92,97,4.287980784,2.7,51,0,21,5,36,3.2,93,58.3,5.9,5,153,62,32,12,72,130,17.5,28.2,8.5,0.49,35.5,0,39.71,93,0.01,15.5,0,58.3,-7,0,4059,0,0,80.84,92.45,0,160,3.3,0,111.36,94.34,95.36,17.43,59834000000,20447000,4,6,10,0,0,0
TWN,TPE,Taiwan,177,6,0,0,0,0,0,0,0,0,0,0,0,0,0,0,0,0,0,0,0,0,0,0,0,0,0,0,0,0,0,0,0,0,0,0,0,10,0,26069,0,0,0,0,0,0,0,22900000,0,0,0,0,8.76E+11,23174528,25,19,44,0,1,1
TJK,TJK,Tajikistan,178,2,28,99.5,1.56,95,99,3.822168079,1.4,25,7.4,20,5,39,3.5,83,37.9,5.5,20,200,55,204,56,64,170,0,0,0,0.39,5.1,0,29.23,83.4,4.58E-04,4.1,3.35,37.9,-3,0.21,1413,7.8,33.59,99.45,99.85,0,100,0,7163506,101.72,88.37,100.01,9.82,6522200291,6879000,3,13,16,0,0,1
TZA,TAN,Tanzania,179,3,69,69.4,0.98,97,98,4.596146075,2.5,25,57.8,18,5,44,5.3,43,26.4,13.3,0,504,40,312,74,50,950,4.9,44.4,16.7,5.45,6.5,14.6,125.14,46.3,0,8.8,5.16,26.4,1,6.41,1018,7.29,34.62,69.43,78.4,4.67,1500,0.7,36800000,56.46,98.9,94.17,0,23705302063,44841000,2,5,7,0,0,0
THA,THA,Thailand,180,6,35,92.6,7.44,94,94,4.802390556,0.7,33,2,33,12,21,1.8,97,71.5,11.3,4,210,60,142,7,72,110,8.3,15.7,7,5.59,15.7,21.7,42.74,97.3,0.17,48.5,1.85,76.7,9,1.46,6869,6.34,41.98,92.65,97.98,70.86,44,6,64200000,96.04,102.41,99.74,17.26,3.46E+11,69122000,18,19,37,0,2,1
TGO,TOG,Togo,182,3,44,53.2,0.77,75,86,3.80685803,2.7,41,0,18,5,43,5,62,25.7,6.9,0,336,45,389,69,57,510,2.6,29.8,23.2,1.24,14,0,95.04,62.4,0,8.5,4.8,16.8,-4,3.35,888,0,0,53.16,74.37,0,570,3.4,5399991,65.03,73.43,75.97,13.92,3594513925,6028000,2,4,6,0,0,0
TON,TGA,Tonga,183,6,8,98.9,5.47,94,97,2,0.5,24,0,21,9,37,3.8,99,0,11.1,3,165,62,25,20,71,0,0,0,0,0.75,0,39,17.77,85.75,0.65,29.8,3.83,33,0,0,5135,0,0,98.91,99.31,0,0,3.75,112422,136.63,99.39,100.09,0,4.36E+08,104000,1,2,3,0,0,0
TTO,TRI,Trinidad and Tobago,184,5,17,98.5,16.8,85,85,3.123198075,0.4,13,0,29,10,22,1.6,98,38.2,6.9,8,199,62,8,33,69,45,4.9,5.3,4.4,4.17,19.9,22.1,34.9,97.8,0.82,61.3,1.64,42.5,10,1.45,15352,5.9,38.88,98.37,99.46,112.47,160,7.9,1075066,87.98,100.55,100.01,27.94,22483115868,1341000,10,21,31,1,0,3
TUN,TUN,Tunisia,185,1,4,74.3,6.49,97,96,4.009238371,1.1,66,2,27,9,25,1.9,90,62.6,6.5,13,136,62,25,19,72,100,0,0,0,1.23,18.3,26.6,7.28,89.9,0.18,56.3,1.93,62.6,-4,0.05,6461,5.96,39.8,74.3,94.34,10.03,120,4.8,10100000,99.17,103.58,95.69,21.25,45863804800,10549000,20,64,84,1,1,1
TUR,TUR,Turkey,186,2,25,87.4,8.41,89,93,4.868773708,1.3,68,3.4,27,8,28,2.2,83,71,16.5,16,123,62,29,24,73,44,9.1,15.6,3.5,1.37,8.4,35.5,40.87,83,2.21,59.6,2.14,71,7,0,7786,5.34,43.64,87.37,95.6,44.46,70,5.1,69700000,86.4,89.37,95.18,0,7.73E+11,72752000,66,48,114,2,2,1
TKM,TKM,Turkmenistan,187,2,14,98.8,3.99,0,0,3.690107439,1.4,47,0,24,6,31,2.6,100,61.8,14.9,25,291,54,65,45,63,130,0,0,0,1.18,0,0,16.31,99.5,0,2.2,2.5,48,-9,0,4247,6.14,40.76,98.78,99.81,0,31,0,4952081,0,0,100.01,0,24107017544,5042000,3,7,10,0,0,0
TUV,TUV,Tuvalu,188,6,0,0,0,0,0,1,0.4,46,0,0,8,34,3,100,0,16.1,9,262,53,295,31,65,0,0,0,0,1.37,36.4,0,0,0,0,0,0,0,0,0,0,0,0,0,0,0,0,0,0,0,0,0,0,3.58E+07,9827,1,2,3,0,0,0
UGA,UGA,Uganda,189,3,79,68.1,0.88,0,0,4.475656663,3.2,13,0,15,4,49,6.6,42,23.7,10,0,495,43,355,78,50,550,4.9,44.8,19,0,16.6,12.1,160.04,42.1,0,4.6,6.46,23.7,-1,6.06,991,5.7,45.7,66.81,76.64,1.18,880,0.5,27300000,54.43,97.63,86.06,12.42,16809623489,33424000,5,11,16,1,0,0
UKR,UKR,Ukraine,190,2,14,99.4,6.11,90,90,4.667984988,-0.8,68,2,39,21,14,1.2,100,0,8.8,31,264,59,106,20,67,18,26.5,22.9,4.1,6.09,26,0,28.73,99.8,0,64.5,1.22,65.6,6,1.46,5583,9.03,28.24,99.43,99.8,28.99,35,2.8,47000000,104.93,98.74,100.06,17.12,1.65E+11,45871000,115,121,236,6,5,9
ARE,UAE,United Arab Emirates,191,1,18,88.5,31.19,88,88,3.628184508,3.5,77,0,30,2,20,2.3,100,0,8.7,17,78,64,16,8,78,37,0,0,0,0.02,19.5,14.4,20.37,100,3.15,100.8,2.31,27.5,-8,0,33487,0,0,88.67,96.97,173.91,54,12,2563212,96.23,100.25,97.56,1.72,3.60E+11,7512000,2,28,30,0,0,0
GBR,GBR,United Kingdom,192,2,13,0,33.65,99,98,4.781841507,0.4,90,0,39,22,18,1.8,99,82,16.5,23,80,71,15,5,79,8,0,0,0,11.75,0,35.7,25.12,99,16.43,109.7,1.82,84,10,0.19,31580,6.14,35.97,0,0,137.02,13,60,60400000,0,101.47,0,27.92,2.43E+12,62232000,269,287,556,29,17,19
USA,USA,United States of America,193,4,21,0,44.07,93,91,5.481214672,1,81,0,36,17,21,2.1,100,72.8,19.1,26,109,69,4,7,78,11,7,3.3,1.1,8.61,0,23.9,42.93,99.3,16.2,71.5,2.05,64.2,10,0.65,41674,5.44,40.81,0,0,136.89,17,76.2,296000000,0,100.3,0,11.19,1.51E+13,309349000,271,260,531,46,29,29
URY,URU,Uruguay,194,5,32,96.8,9.94,100,100,3.522574633,0.2,92,2,33,18,24,2.1,100,77,9.2,37,125,66,27,13,75,20,9.4,13.9,6,7.74,23.2,32.6,62.42,99.3,1.85,35.5,2.12,84,10,0.5,9266,4.46,46.14,96.78,98.58,0.58,27,13.3,3415920,92.53,105.59,100.88,18.7,46709797684,3357000,3,30,33,0,0,0
UZB,UZB,Uzbekistan,195,2,20,0,2.19,78,79,4.431058042,1.4,37,2,23,6,32,2.6,100,64.9,8,27,185,59,121,38,68,24,12.8,19.6,4.4,1.51,0,12.8,35.17,99.9,0.03,2.7,2.49,64.9,-9,0.06,1975,7.2,36.77,0,0,0.25,24,0,26900000,98.14,97.4,0,0,45359432355,28228000,18,36,54,1,0,3
VUT,VAN,Vanuatu,196,6,46,75.5,3.48,86,88,2.344392274,2.5,24,0,20,5,39,3.9,92,0,10.9,1,187,59,58,30,69,0,0,0,0,0.75,25.6,28.8,47.42,88,0.03,5.8,3.74,28,0,0,3477,0,0,74,0,0,130,1.4,205754,85.92,94.76,0,18.28,8.19E+08,240000,2,3,5,0,0,0
VEN,VEN,Venezuela,197,5,40,93,10.97,91,91,4.43442518,1.7,94,18.5,25,8,31,2.6,95,0,9.3,19,142,64,41,18,74,57,0,0,0,6.67,14.8,29.8,90.78,95,1.34,46.7,0,76.8,6,0.88,9876,3.25,48.2,92.98,97.2,3.46,96,8.2,0,91.39,103.26,101.81,15.59,3.16E+11,28834000,27,42,69,1,0,0
VNM,VIE,Vietnam,198,6,12,90.3,2.31,91,96,4.935537494,1.4,27,0,25,8,29,2.2,88,78.5,6.8,6,155,61,173,15,72,150,2.5,35.8,20.2,0.85,2.2,24.3,18.94,87.7,0.25,11.4,2.14,76.8,-7,0.51,2142,7.14,37.05,90.28,93.88,0.87,130,1.3,83500000,92.38,95.99,99.37,0,1.24E+11,86928000,12,6,18,0,0,0
YEM,YEM,Yemen,200,1,41,54.1,2.09,65,85,4.337099696,3,28,0,17,4,45,5.6,20,23.1,5.6,3,250,49,78,75,61,430,3.7,58.2,41.3,0.04,17.7,0,74.47,26.8,0,9.5,5.5,23.1,-2,0,2276,7.16,37.7,54.07,75.2,0,570,1.4,20700000,60.35,65.65,64.92,9.42,33757503322,24053000,1,3,4,0,0,0
ZMB,ZAM,Zambia,201,3,80,68,1.14,94,90,4.06803736,1.9,35,63.8,17,5,46,5.3,43,34.2,10.8,1,617,35,553,102,43,830,5.9,52.5,23.3,2.4,25.6,13.4,134.34,43.4,0,8.1,5.18,34.2,5,15.04,1175,3.61,50.8,68,69.46,13.6,750,1,11300000,82.72,92.7,91.2,16.95,19206011889,12927000,2,5,7,0,0,0
ZWE,ZIM,Zimbabwe,202,3,50,89.5,0,88,87,4.121494186,0.8,36,0,19,5,39,3.3,69,60.2,8.9,2,751,34,557,55,43,880,9.1,35.8,14,4.41,10.1,15,64.24,79.7,0.08,5.6,3.19,60.2,-4,19.01,538,4.63,50.1,89.36,97.7,70.26,1100,8.4,12200000,81.03,96.32,100.45,26.37,9900000000,12571000,3,4,7,0,0,0
