NOC,Total Medals,Education Rank
ESP,17,799
TJK,1,797
ITA,28,788
CYP,1,784
GRE,2,770
EST,2,759
POR,1,755
SLO,4,752
ARG,4,750
MDV,0,740
CUB,14,732
KAZ,13,694
MEX,7,688
CHN,88,681
UKR,20,677
MAS,2,669
BRN,1,665
BUL,2,637
ROU,9,634
INA,2,633
RUS,82,629
LAT,2,621
BLR,12,611
BRA,17,604
CRO,6,603
THA,3,594
LTU,5,590
MGL,5,576
IRI,12,564
MDA,2,558
AZE,10,555
KUW,1,545
COL,8,544
ARM,3,536
TUN,3,535
QAT,2,526
VEN,1,520
TRI,4,511
EGY,2,503
JPN,38,483
ALG,1,463
TUR,5,453
RSA,6,436
FRA,34,433
PRK,6,425
NED,20,423
NOR,4,418
NZL,13,408
FIN,3,406
KSA,1,396
GER,44,395
SWE,8,389
GUA,1,381
GAB,1,373
DEN,9,369
BOT,1,368
POL,10,367
SIN,2,363
CZE,10,344
IRL,5,340
DOM,2,338
CAN,18,329
BEL,3,327
JAM,12,324
GBR,65,312
IND,6,291
SVK,4,291
KEN,11,280
BAH,1,272
MAR,1,265
AUS,35,259
HUN,17,228
GEO,7,221
SUI,4,221
UZB,4,198
USA,104,195
GRN,1,181
UGA,1,123
ETH,7,100
PUR,2,51
HKG,1,23
AFG,1,22
KOR,28,0
